activity	median	rank	label	median_low	median_high
Fishing	13.625	6	Fishing (23%)	5.5	6.5
Golfing	12.958333333333334	7	Golfing (25%)	6.5	7.5
Hunting	11.541666666666666	1	Hunting (14%)	0.5	1.5
Participating in water sports	14.708333333333334	8	Participating in water sports (30%)	7.5	8.5
Playing basketball	16.541666666666668	4	Playing basketball (18%)	3.5	4.5
Running	11.958333333333334	2	Running (16%)	1.5	2.5
Using cardiovascular equipment	12.541666666666666	3	Using cardiovascular equipment (17%)	2.5	3.5
Walking	13.375	10	Walking (62%)	9.5	10.5
Weightlifting/strength training	14.708333333333334	5	Weightlifting/strength training (21%)	4.5	5.5
Working out, unspecified	11.875	9	Working out, unspecified (45%)	8.5	9.5
